ex10_fifo/test_run_dir/Waveform_should_pass/RAM_2.vcd
$date
2023-11-08T15:34+0000
$end
$version
0.2
$end
$comment

$end
$timescale 1ns  $end
$scope module RAM_2 $end
 $var wire 1 ! io_out_en $end
 $var wire 8 " io_in_write_data $end
 $var wire 8 # fifo_100 $end
 $var wire 8 $ fifo_101 $end
 $var wire 8 % io_in_read_addr $end
 $var wire 1 & io_in_write_en $end
 $var wire 1 ' io_in_read_en $end
 $var wire 8 ( fifo_220 $end
 $var wire 8 ) fifo_221 $end
 $var wire 8 * fifo_222 $end
 $var wire 8 + fifo_216 $end
 $var wire 8 , fifo_217 $end
 $var wire 8 - fifo_218 $end
 $var wire 8 . fifo_219 $end
 $var wire 8 / fifo_212 $end
 $var wire 8 0 fifo_213 $end
 $var wire 8 1 fifo_214 $end
 $var wire 8 2 fifo_215 $end
 $var wire 8 3 fifo_210 $end
 $var wire 8 4 fifo_211 $end
 $var wire 8 5 fifo_209 $end
 $var wire 8 6 fifo_205 $end
 $var wire 8 7 fifo_206 $end
 $var wire 8 8 fifo_207 $end
 $var wire 8 9 fifo_208 $end
 $var wire 8 : fifo_201 $end
 $var wire 8 ; fifo_202 $end
 $var wire 8 < fifo_203 $end
 $var wire 8 = fifo_204 $end
 $var wire 8 > fifo_200 $end
 $var wire 8 ? fifo_142 $end
 $var wire 8 @ fifo_143 $end
 $var wire 8 A fifo_144 $end
 $var wire 8 B fifo_145 $end
 $var wire 8 C fifo_140 $end
 $var wire 8 D fifo_141 $end
 $var wire 8 E fifo_139 $end
 $var wire 8 F fifo_135 $end
 $var wire 8 G fifo_136 $end
 $var wire 8 H fifo_137 $end
 $var wire 8 I fifo_138 $end
 $var wire 8 J fifo_131 $end
 $var wire 8 K fifo_132 $end
 $var wire 8 L fifo_133 $end
 $var wire 8 M fifo_134 $end
 $var wire 8 N fifo_130 $end
 $var wire 8 O fifo_128 $end
 $var wire 8 P fifo_129 $end
 $var wire 8 Q fifo_124 $end
 $var wire 8 R fifo_125 $end
 $var wire 8 S fifo_126 $end
 $var wire 8 T fifo_127 $end
 $var wire 8 U fifo_120 $end
 $var wire 8 V fifo_121 $end
 $var wire 8 W fifo_122 $end
 $var wire 8 X fifo_123 $end
 $var wire 8 Y fifo_117 $end
 $var wire 8 Z fifo_118 $end
 $var wire 8 [ fifo_119 $end
 $var wire 8 \ fifo_113 $end
 $var wire 8 ] fifo_114 $end
 $var wire 8 ^ fifo_115 $end
 $var wire 8 _ fifo_116 $end
 $var wire 8 ` fifo_110 $end
 $var wire 8 a fifo_111 $end
 $var wire 8 b fifo_112 $end
 $var wire 8 c io_out_read_data $end
 $var wire 8 d fifo_106 $end
 $var wire 8 e fifo_107 $end
 $var wire 8 f fifo_108 $end
 $var wire 8 g fifo_109 $end
 $var wire 8 h fifo_102 $end
 $var wire 8 i fifo_103 $end
 $var wire 8 j fifo_104 $end
 $var wire 8 k fifo_105 $end
 $var wire 8 l fifo_186 $end
 $var wire 8 m fifo_187 $end
 $var wire 8 n fifo_188 $end
 $var wire 8 o fifo_189 $end
 $var wire 8 p fifo_182 $end
 $var wire 8 q fifo_183 $end
 $var wire 8 r fifo_184 $end
 $var wire 8 s fifo_185 $end
 $var wire 8 t fifo_180 $end
 $var wire 8 u fifo_181 $end
 $var wire 8 v fifo_179 $end
 $var wire 8 w fifo_175 $end
 $var wire 8 x fifo_176 $end
 $var wire 8 y fifo_177 $end
 $var wire 8 z fifo_178 $end
 $var wire 8 { fifo_171 $end
 $var wire 8 | fifo_172 $end
 $var wire 8 } fifo_173 $end
 $var wire 8 ~ fifo_174 $end
 $var wire 8 "! fifo_170 $end
 $var wire 8 "" fifo_168 $end
 $var wire 8 "# fifo_169 $end
 $var wire 8 "$ fifo_164 $end
 $var wire 8 "% fifo_165 $end
 $var wire 8 "& fifo_166 $end
 $var wire 8 "' fifo_167 $end
 $var wire 8 "( fifo_160 $end
 $var wire 8 ") fifo_161 $end
 $var wire 8 "* fifo_162 $end
 $var wire 8 "+ fifo_163 $end
 $var wire 8 ", fifo_157 $end
 $var wire 8 "- fifo_158 $end
 $var wire 8 ". fifo_159 $end
 $var wire 8 "/ fifo_153 $end
 $var wire 8 "0 fifo_154 $end
 $var wire 8 "1 fifo_155 $end
 $var wire 8 "2 fifo_156 $end
 $var wire 8 "3 fifo_150 $end
 $var wire 8 "4 fifo_151 $end
 $var wire 8 "5 fifo_152 $end
 $var wire 8 "6 fifo_146 $end
 $var wire 8 "7 fifo_147 $end
 $var wire 8 "8 fifo_148 $end
 $var wire 8 "9 fifo_149 $end
 $var wire 8 ": fifo_197 $end
 $var wire 8 "; fifo_198 $end
 $var wire 8 "< fifo_199 $end
 $var wire 8 "= fifo_193 $end
 $var wire 8 "> fifo_194 $end
 $var wire 8 "? fifo_195 $end
 $var wire 8 "@ fifo_196 $end
 $var wire 8 "A fifo_190 $end
 $var wire 8 "B fifo_191 $end
 $var wire 8 "C fifo_192 $end
 $var wire 8 "D fifo_0 $end
 $var wire 8 "E fifo_2 $end
 $var wire 8 "F fifo_1 $end
 $var wire 8 "G fifo_8 $end
 $var wire 8 "H fifo_7 $end
 $var wire 8 "I fifo_9 $end
 $var wire 8 "J fifo_4 $end
 $var wire 8 "K fifo_3 $end
 $var wire 8 "L fifo_6 $end
 $var wire 8 "M fifo_5 $end
 $var wire 1 "N clock $end
 $var wire 8 "O fifo_252 $end
 $var wire 8 "P fifo_253 $end
 $var wire 8 "Q fifo_254 $end
 $var wire 8 "R fifo_255 $end
 $var wire 8 "S fifo_250 $end
 $var wire 8 "T fifo_251 $end
 $var wire 8 "U fifo_249 $end
 $var wire 8 "V fifo_245 $end
 $var wire 8 "W fifo_246 $end
 $var wire 8 "X fifo_247 $end
 $var wire 8 "Y fifo_248 $end
 $var wire 8 "Z fifo_241 $end
 $var wire 8 "[ fifo_242 $end
 $var wire 8 "\ fifo_243 $end
 $var wire 8 "] fifo_244 $end
 $var wire 8 "^ fifo_240 $end
 $var wire 8 "_ fifo_238 $end
 $var wire 8 "` fifo_239 $end
 $var wire 8 "a fifo_234 $end
 $var wire 8 "b fifo_235 $end
 $var wire 8 "c fifo_236 $end
 $var wire 8 "d fifo_237 $end
 $var wire 8 "e fifo_230 $end
 $var wire 8 "f fifo_231 $end
 $var wire 8 "g fifo_232 $end
 $var wire 8 "h fifo_233 $end
 $var wire 8 "i fifo_227 $end
 $var wire 8 "j fifo_228 $end
 $var wire 8 "k fifo_229 $end
 $var wire 8 "l fifo_223 $end
 $var wire 8 "m fifo_224 $end
 $var wire 8 "n fifo_225 $end
 $var wire 8 "o fifo_226 $end
 $var wire 1 "p reset $end
 $var wire 8 "q io_in_write_addr $end
 $var wire 8 "r fifo_39 $end
 $var wire 8 "s fifo_38 $end
 $var wire 8 "t fifo_31 $end
 $var wire 8 "u fifo_30 $end
 $var wire 8 "v fifo_33 $end
 $var wire 8 "w fifo_32 $end
 $var wire 8 "x fifo_35 $end
 $var wire 8 "y fifo_34 $end
 $var wire 8 "z fifo_37 $end
 $var wire 8 "{ fifo_36 $end
 $var wire 8 "| fifo_28 $end
 $var wire 8 "} fifo_27 $end
 $var wire 8 "~ fifo_29 $end
 $var wire 8 #! fifo_20 $end
 $var wire 8 #" fifo_22 $end
 $var wire 8 ## fifo_21 $end
 $var wire 8 #$ fifo_24 $end
 $var wire 8 #% fifo_23 $end
 $var wire 8 #& fifo_26 $end
 $var wire 8 #' fifo_25 $end
 $var wire 8 #( fifo_53 $end
 $var wire 8 #) fifo_52 $end
 $var wire 8 #* fifo_55 $end
 $var wire 8 #+ fifo_54 $end
 $var wire 8 #, fifo_57 $end
 $var wire 8 #- fifo_56 $end
 $var wire 8 #. fifo_59 $end
 $var wire 8 #/ fifo_58 $end
 $var wire 8 #0 fifo_51 $end
 $var wire 8 #1 fifo_50 $end
 $var wire 8 #2 fifo_49 $end
 $var wire 8 #3 fifo_42 $end
 $var wire 8 #4 fifo_41 $end
 $var wire 8 #5 fifo_44 $end
 $var wire 8 #6 fifo_43 $end
 $var wire 8 #7 fifo_46 $end
 $var wire 8 #8 fifo_45 $end
 $var wire 8 #9 fifo_48 $end
 $var wire 8 #: fifo_47 $end
 $var wire 8 #; fifo_40 $end
 $var wire 8 #< fifo_17 $end
 $var wire 8 #= fifo_16 $end
 $var wire 8 #> fifo_19 $end
 $var wire 8 #? fifo_18 $end
 $var wire 8 #@ fifo_11 $end
 $var wire 8 #A fifo_10 $end
 $var wire 8 #B fifo_13 $end
 $var wire 8 #C fifo_12 $end
 $var wire 8 #D fifo_15 $end
 $var wire 8 #E fifo_14 $end
 $var wire 8 #F fifo_75 $end
 $var wire 8 #G fifo_74 $end
 $var wire 8 #H fifo_77 $end
 $var wire 8 #I fifo_76 $end
 $var wire 8 #J fifo_79 $end
 $var wire 8 #K fifo_78 $end
 $var wire 8 #L fifo_71 $end
 $var wire 8 #M fifo_70 $end
 $var wire 8 #N fifo_73 $end
 $var wire 8 #O fifo_72 $end
 $var wire 8 #P fifo_64 $end
 $var wire 8 #Q fifo_63 $end
 $var wire 8 #R fifo_66 $end
 $var wire 8 #S fifo_65 $end
 $var wire 8 #T fifo_68 $end
 $var wire 8 #U fifo_67 $end
 $var wire 8 #V fifo_69 $end
 $var wire 8 #W fifo_60 $end
 $var wire 8 #X fifo_62 $end
 $var wire 8 #Y fifo_61 $end
 $var wire 8 #Z fifo_97 $end
 $var wire 8 #[ fifo_96 $end
 $var wire 8 #\ fifo_99 $end
 $var wire 8 #] fifo_98 $end
 $var wire 8 #^ fifo_91 $end
 $var wire 8 #_ fifo_90 $end
 $var wire 8 #` fifo_93 $end
 $var wire 8 #a fifo_92 $end
 $var wire 8 #b fifo_95 $end
 $var wire 8 #c fifo_94 $end
 $var wire 8 #d fifo_86 $end
 $var wire 8 #e fifo_85 $end
 $var wire 8 #f fifo_88 $end
 $var wire 8 #g fifo_87 $end
 $var wire 8 #h fifo_89 $end
 $var wire 8 #i fifo_80 $end
 $var wire 8 #j fifo_82 $end
 $var wire 8 #k fifo_81 $end
 $var wire 8 #l fifo_84 $end
 $var wire 8 #m fifo_83 $end
$upscope $end
$enddefinitions $end
$dumpvars
b00000000 k
b00000000 j
b00000000 m
b00000000 l
b00000000 g
b00000000 f
b00000000 i
b00000000 h
b00000000 c
b00000000 b
b00000000 e
b00000000 d
b00000000 _
b00000000 ^
b00000000 a
b00000000 `
b00000000 {
b00000000 z
b00000000 }
b00000000 |
b00000000 w
b00000000 v
b00000000 y
b00000000 x
b00000000 s
b00000000 r
b00000000 u
b00000000 t
b00000000 o
b00000000 n
b00000000 q
b00000000 p
b00000000 K
b00000000 J
b00000000 M
b00000000 L
b00000000 G
b00000000 F
b00000000 I
b00000000 H
b00000000 C
b00000000 B
b00000000 E
b00000000 D
b00000000 ?
b00000000 >
b00000000 A
b00000000 @
b00000000 [
b00000000 Z
b00000000 ]
b00000000 \
b00000000 W
b00000000 V
b00000000 Y
b00000000 X
b00000000 S
b00000000 R
b00000000 U
b00000000 T
b00000000 O
b00000000 N
b00000000 Q
b00000000 P
b00000000 ~
b00000000 "g
b00000000 #H
b00000000 "f
b00000000 #G
b00000000 "e
b00000000 #F
b00000000 "d
b00000000 #E
b00000000 "k
b00000000 #L
b00000000 "j
b00000000 #K
b00000000 "i
b00000000 #J
b00000000 "h
b00000000 #I
b00000000 "o
b00000000 #P
b00000000 "n
b00000000 #O
b00000000 "m
b00000000 #N
b00000000 "l
b00000000 #M
b00000000 "s
b00000000 #T
b00000000 "r
b00000000 #S
b00000000 "q
b00000000 #R
b00000000 #Q
b00000000 "w
b00000000 #X
b00000000 "v
b00000000 #W
b00000000 "u
b00000000 #V
b00000000 "t
b00000000 #U
b00000000 "{
b00000000 #\
b00000000 "z
b00000000 #[
b00000000 "y
b00000000 #Z
b00000000 "x
b00000000 #Y
b00000000 #`
b00000000 "~
b00000000 #_
b00000000 "}
b00000000 #^
b00000000 "|
b00000000 #]
0"N
b00000000 #d
b00000000 #c
b00000000 #b
b00000000 #a
b00000000 #h
b00000000 #g
b00000000 #f
b00000000 #e
b00000000 #l
b00000000 #k
b00000000 #j
b00000000 #i
b00000000 #m
0"p
b00000000 "#
b00000000 ""
b00000000 "!
b00000000 "'
b00000000 "&
b00000000 "%
b00000000 "$
b00000000 "+
b00000000 "*
b00000000 ")
b00000000 "(
b00000000 "/
b00000000 ".
b00000000 "-
b00000000 ",
b00000000 "3
b00000000 "2
b00000000 "1
b00000000 "0
b00000000 "7
b00000000 "6
b00000000 "5
b00000000 "4
b00000000 ";
b00000000 ":
b00000000 "9
b00000000 "8
b00000000 "?
b00000000 ">
b00000000 "=
b00000000 "<
b00000000 "C
b00000000 #$
b00000000 "B
b00000000 ##
b00000000 "A
b00000000 #"
b00000000 "@
b00000000 #!
b00000000 "G
b00000000 #(
b00000000 "F
b00000000 #'
b00000000 "E
b00000000 #&
b00000000 "D
b00000000 #%
b00000000 "K
b00000000 #,
b00000000 "J
b00000000 #+
b00000000 "I
b00000000 #*
b00000000 "H
b00000000 #)
b00000000 "O
b00000000 #0
b00000000 #/
b00000000 "M
b00000000 #.
b00000000 "L
b00000000 #-
b00000000 "S
b00000000 #4
b00000000 "R
b00000000 #3
b00000000 "Q
b00000000 #2
b00000000 "P
b00000000 #1
b00000000 "W
b00000000 #8
b00000000 "V
b00000000 #7
b00000000 "U
b00000000 #6
b00000000 "T
b00000000 #5
b00000000 "[
b00000000 #<
b00000000 "Z
b00000000 #;
b00000000 "Y
b00000000 #:
b00000000 "X
b00000000 #9
b00000000 "_
b00000000 #@
b00000000 "^
b00000000 #?
b00000000 "]
b00000000 #>
b00000000 "\
b00000000 #=
b00000000 "c
b00000000 #D
b00000000 "b
b00000000 #C
b00000000 "a
b00000000 #B
b00000000 "`
b00000000 #A
b00000000 +
b00000000 *
b00000000 -
b00000000 ,
b00000000 )
b00000000 (
b00000000 #
b00000000 "
b00000000 %
b00000000 $
b00000000 ;
b00000000 :
b00000000 =
b00000000 <
b00000000 7
b00000000 6
b00000000 9
b00000000 8
b00000000 3
b00000000 2
b00000000 5
b00000000 4
b00000000 /
b00000000 .
b00000000 1
b00000000 0
0!
0&
0'
$end
#0
1!
1"p
#1
1"N
#6
0!
b00000010 "
1&
0"N
0"p
#11
b00000010 "D
1"N
#16
0"N
#21
1"N
#26
0"N
#31
1"N
#36
1!
b00000010 c
1'
0"N
#41
1"N
#46
b00000001 "
0"N
b00000001 "q
#51
b00000001 "F
1"N
#56
b00000001 c
b00000001 %
0"N
#61
1"N
#66
b00000100 "
0"N
b00000010 "q
#71
b00000100 "E
1"N
#76
b00000100 c
b00000010 %
0"N
#81
1"N
#86
b00000101 "
0"N
b00000011 "q
#91
b00000101 "K
1"N
#96
b00000101 c
b00000011 %
0"N
#101
1"N
#106
b00000011 "
0"N
b00000100 "q
#111
b00000011 "J
1"N
#116
b00000011 c
b00000100 %
0"N
#121
1"N
#126
0"N
b00000101 "q
#131
b00000011 "M
1"N
#136
b00000101 %
0"N
#141
1"N
#146
b00000111 "
0"N
b00000110 "q
#151
b00000111 "L
1"N
#156
b00000111 c
b00000110 %
0"N
#161
1"N
#166
b00000100 "
0"N
b00000111 "q
#171
b00000100 "H
1"N
#176
b00000100 c
b00000111 %
0"N
#181
1"N
#186
b00000110 "
0"N
b00001000 "q
#191
b00000110 "G
1"N
#196
b00000110 c
b00001000 %
0"N
#201
1"N
#206
b00000010 "
0"N
b00001001 "q
#211
b00000010 "I
1"N
#216
b00000010 c
b00001001 %
0"N
#221
1"N
#226
b00000101 "
0"N
b00001010 "q
#231
1"N
b00000101 #A
#236
b00000101 c
b00001010 %
0"N
#241
1"N
#246
b00000000 "
0"N
b00001011 "q
#251
1"N
#256
b00000000 c
b00001011 %
0"N
#261
1"N
#266
b00000100 "
0"N
b00001100 "q
#271
b00000100 #C
1"N
#276
b00000100 c
b00001100 %
0"N
#281
1"N
#286
b00000011 "
0"N
b00001101 "q
#291
1"N
b00000011 #B
#296
b00000011 c
b00001101 %
0"N
#301
1"N
#306
b00000101 "
0"N
b00001110 "q
#311
b00000101 #E
1"N
#316
b00000101 c
b00001110 %
0"N
#321
1"N
#326
b00000001 "
0"N
b00001111 "q
#331
b00000001 #D
1"N
#336
b00000001 c
b00001111 %
0"N
#341
1"N
#346
b00000100 "
0"N
b00010000 "q
#351
b00000100 #=
1"N
#356
b00000100 c
b00010000 %
0"N
#361
1"N
#366
0"N
b00010001 "q
#371
b00000100 #<
1"N
#376
b00010001 %
0"N
#381
1"N
#386
b00000001 "
0"N
b00010010 "q
#391
1"N
b00000001 #?
#396
b00000001 c
b00010010 %
0"N
#401
1"N
#406
b00000110 "
0"N
b00010011 "q
#411
b00000110 #>
1"N
#416
b00000110 c
b00010011 %
0"N
#421
1"N
#426
b00000101 "
0"N
b00010100 "q
#431
1"N
b00000101 #!
#436
b00000101 c
b00010100 %
0"N
#441
1"N
#446
b00000001 "
0"N
b00010101 "q
#451
b00000001 ##
1"N
#456
b00000001 c
b00010101 %
0"N
#461
1"N
#466
b00000011 "
0"N
b00010110 "q
#471
1"N
b00000011 #"
#476
b00000011 c
b00010110 %
0"N
#481
1"N
#486
b00000101 "
0"N
b00010111 "q
#491
b00000101 #%
1"N
#496
b00000101 c
b00010111 %
0"N
#501
1"N
#506
b00000100 "
0"N
b00011000 "q
#511
b00000100 #$
1"N
#516
b00000100 c
b00011000 %
0"N
#521
1"N
#526
b00000000 "
b00000000 %
0&
0'
0"N
b00000000 "q
