ex10_fifo/test_run_dir/Waveform_should_pass/RAM_1.vcd
$date
2023-11-08T13:41+0000
$end
$version
0.2
$end
$comment

$end
$timescale 1ns  $end
$scope module RAM_1 $end
 $var wire 1 ! io_out_en $end
 $var wire 8 " fifo_100 $end
 $var wire 8 # fifo_101 $end
 $var wire 1 $ io_in_en $end
 $var wire 8 % io_in_data $end
 $var wire 8 & fifo_220 $end
 $var wire 8 ' fifo_221 $end
 $var wire 8 ( fifo_222 $end
 $var wire 8 ) fifo_216 $end
 $var wire 8 * fifo_217 $end
 $var wire 8 + fifo_218 $end
 $var wire 8 , fifo_219 $end
 $var wire 8 - fifo_212 $end
 $var wire 8 . fifo_213 $end
 $var wire 8 / fifo_214 $end
 $var wire 8 0 fifo_215 $end
 $var wire 8 1 fifo_210 $end
 $var wire 8 2 fifo_211 $end
 $var wire 8 3 fifo_209 $end
 $var wire 8 4 fifo_205 $end
 $var wire 8 5 fifo_206 $end
 $var wire 8 6 fifo_207 $end
 $var wire 8 7 fifo_208 $end
 $var wire 8 8 fifo_201 $end
 $var wire 8 9 fifo_202 $end
 $var wire 8 : fifo_203 $end
 $var wire 8 ; fifo_204 $end
 $var wire 8 < fifo_200 $end
 $var wire 8 = fifo_142 $end
 $var wire 8 > fifo_143 $end
 $var wire 8 ? fifo_144 $end
 $var wire 8 @ fifo_145 $end
 $var wire 8 A fifo_140 $end
 $var wire 8 B fifo_141 $end
 $var wire 8 C fifo_139 $end
 $var wire 8 D fifo_135 $end
 $var wire 8 E fifo_136 $end
 $var wire 8 F fifo_137 $end
 $var wire 8 G fifo_138 $end
 $var wire 8 H fifo_131 $end
 $var wire 8 I fifo_132 $end
 $var wire 8 J fifo_133 $end
 $var wire 8 K fifo_134 $end
 $var wire 8 L fifo_130 $end
 $var wire 8 M fifo_128 $end
 $var wire 8 N fifo_129 $end
 $var wire 8 O fifo_124 $end
 $var wire 8 P fifo_125 $end
 $var wire 8 Q fifo_126 $end
 $var wire 8 R fifo_127 $end
 $var wire 8 S fifo_120 $end
 $var wire 8 T fifo_121 $end
 $var wire 8 U fifo_122 $end
 $var wire 8 V fifo_123 $end
 $var wire 8 W fifo_117 $end
 $var wire 8 X fifo_118 $end
 $var wire 8 Y fifo_119 $end
 $var wire 8 Z fifo_113 $end
 $var wire 8 [ fifo_114 $end
 $var wire 8 \ fifo_115 $end
 $var wire 8 ] fifo_116 $end
 $var wire 8 ^ fifo_110 $end
 $var wire 8 _ fifo_111 $end
 $var wire 8 ` fifo_112 $end
 $var wire 8 a fifo_106 $end
 $var wire 8 b fifo_107 $end
 $var wire 8 c fifo_108 $end
 $var wire 8 d fifo_109 $end
 $var wire 8 e fifo_102 $end
 $var wire 8 f fifo_103 $end
 $var wire 8 g fifo_104 $end
 $var wire 8 h fifo_105 $end
 $var wire 8 i fifo_186 $end
 $var wire 8 j fifo_187 $end
 $var wire 8 k fifo_188 $end
 $var wire 8 l fifo_189 $end
 $var wire 8 m fifo_182 $end
 $var wire 8 n fifo_183 $end
 $var wire 8 o fifo_184 $end
 $var wire 8 p fifo_185 $end
 $var wire 8 q fifo_180 $end
 $var wire 8 r fifo_181 $end
 $var wire 8 s fifo_179 $end
 $var wire 8 t fifo_175 $end
 $var wire 8 u fifo_176 $end
 $var wire 8 v fifo_177 $end
 $var wire 8 w fifo_178 $end
 $var wire 8 x fifo_171 $end
 $var wire 8 y fifo_172 $end
 $var wire 8 z fifo_173 $end
 $var wire 8 { fifo_174 $end
 $var wire 8 | fifo_170 $end
 $var wire 8 } fifo_168 $end
 $var wire 8 ~ fifo_169 $end
 $var wire 8 "! fifo_164 $end
 $var wire 8 "" fifo_165 $end
 $var wire 8 "# fifo_166 $end
 $var wire 8 "$ fifo_167 $end
 $var wire 8 "% fifo_160 $end
 $var wire 8 "& fifo_161 $end
 $var wire 8 "' fifo_162 $end
 $var wire 8 "( fifo_163 $end
 $var wire 8 ") fifo_157 $end
 $var wire 8 "* fifo_158 $end
 $var wire 8 "+ fifo_159 $end
 $var wire 8 ", fifo_153 $end
 $var wire 8 "- fifo_154 $end
 $var wire 8 ". fifo_155 $end
 $var wire 8 "/ fifo_156 $end
 $var wire 8 "0 fifo_150 $end
 $var wire 8 "1 fifo_151 $end
 $var wire 8 "2 fifo_152 $end
 $var wire 8 "3 fifo_146 $end
 $var wire 8 "4 fifo_147 $end
 $var wire 8 "5 fifo_148 $end
 $var wire 8 "6 fifo_149 $end
 $var wire 8 "7 fifo_197 $end
 $var wire 8 "8 fifo_198 $end
 $var wire 8 "9 fifo_199 $end
 $var wire 8 ": fifo_193 $end
 $var wire 8 "; fifo_194 $end
 $var wire 8 "< fifo_195 $end
 $var wire 8 "= fifo_196 $end
 $var wire 8 "> fifo_190 $end
 $var wire 8 "? fifo_191 $end
 $var wire 8 "@ fifo_192 $end
 $var wire 8 "A fifo_0 $end
 $var wire 8 "B fifo_2 $end
 $var wire 8 "C fifo_1 $end
 $var wire 8 "D fifo_8 $end
 $var wire 8 "E fifo_7 $end
 $var wire 8 "F fifo_9 $end
 $var wire 8 "G fifo_4 $end
 $var wire 8 "H fifo_3 $end
 $var wire 8 "I fifo_6 $end
 $var wire 8 "J fifo_5 $end
 $var wire 1 "K clock $end
 $var wire 8 "L fifo_252 $end
 $var wire 8 "M fifo_253 $end
 $var wire 8 "N fifo_254 $end
 $var wire 8 "O fifo_255 $end
 $var wire 8 "P fifo_250 $end
 $var wire 8 "Q fifo_251 $end
 $var wire 8 "R fifo_249 $end
 $var wire 8 "S fifo_245 $end
 $var wire 8 "T fifo_246 $end
 $var wire 8 "U fifo_247 $end
 $var wire 8 "V fifo_248 $end
 $var wire 8 "W fifo_241 $end
 $var wire 8 "X fifo_242 $end
 $var wire 8 "Y fifo_243 $end
 $var wire 8 "Z fifo_244 $end
 $var wire 8 "[ fifo_240 $end
 $var wire 8 "\ fifo_238 $end
 $var wire 8 "] fifo_239 $end
 $var wire 8 "^ fifo_234 $end
 $var wire 8 "_ fifo_235 $end
 $var wire 8 "` fifo_236 $end
 $var wire 8 "a fifo_237 $end
 $var wire 8 "b fifo_230 $end
 $var wire 8 "c fifo_231 $end
 $var wire 8 "d fifo_232 $end
 $var wire 8 "e fifo_233 $end
 $var wire 8 "f fifo_227 $end
 $var wire 8 "g fifo_228 $end
 $var wire 8 "h fifo_229 $end
 $var wire 8 "i fifo_223 $end
 $var wire 8 "j fifo_224 $end
 $var wire 8 "k fifo_225 $end
 $var wire 8 "l fifo_226 $end
 $var wire 1 "m reset $end
 $var wire 8 "n fifo_39 $end
 $var wire 8 "o fifo_38 $end
 $var wire 8 "p fifo_31 $end
 $var wire 8 "q fifo_30 $end
 $var wire 8 "r fifo_33 $end
 $var wire 8 "s fifo_32 $end
 $var wire 8 "t fifo_35 $end
 $var wire 8 "u fifo_34 $end
 $var wire 8 "v fifo_37 $end
 $var wire 8 "w fifo_36 $end
 $var wire 8 "x fifo_28 $end
 $var wire 8 "y fifo_27 $end
 $var wire 8 "z fifo_29 $end
 $var wire 8 "{ fifo_20 $end
 $var wire 8 "| fifo_22 $end
 $var wire 8 "} fifo_21 $end
 $var wire 8 "~ fifo_24 $end
 $var wire 8 #! fifo_23 $end
 $var wire 8 #" fifo_26 $end
 $var wire 8 ## fifo_25 $end
 $var wire 8 #$ fifo_53 $end
 $var wire 8 #% fifo_52 $end
 $var wire 8 #& fifo_55 $end
 $var wire 8 #' fifo_54 $end
 $var wire 8 #( fifo_57 $end
 $var wire 8 #) fifo_56 $end
 $var wire 8 #* fifo_59 $end
 $var wire 8 #+ fifo_58 $end
 $var wire 8 #, fifo_51 $end
 $var wire 8 #- fifo_50 $end
 $var wire 8 #. fifo_49 $end
 $var wire 8 #/ fifo_42 $end
 $var wire 8 #0 fifo_41 $end
 $var wire 8 #1 fifo_44 $end
 $var wire 8 #2 fifo_43 $end
 $var wire 8 #3 fifo_46 $end
 $var wire 8 #4 fifo_45 $end
 $var wire 8 #5 fifo_48 $end
 $var wire 8 #6 fifo_47 $end
 $var wire 8 #7 fifo_40 $end
 $var wire 8 #8 io_out_data $end
 $var wire 8 #9 fifo_17 $end
 $var wire 8 #: fifo_16 $end
 $var wire 8 #; fifo_19 $end
 $var wire 8 #< fifo_18 $end
 $var wire 8 #= fifo_11 $end
 $var wire 8 #> fifo_10 $end
 $var wire 8 #? fifo_13 $end
 $var wire 8 #@ fifo_12 $end
 $var wire 8 #A fifo_15 $end
 $var wire 8 #B fifo_14 $end
 $var wire 8 #C io_in_addr $end
 $var wire 8 #D fifo_75 $end
 $var wire 8 #E fifo_74 $end
 $var wire 8 #F fifo_77 $end
 $var wire 8 #G fifo_76 $end
 $var wire 8 #H fifo_79 $end
 $var wire 8 #I fifo_78 $end
 $var wire 8 #J fifo_71 $end
 $var wire 8 #K fifo_70 $end
 $var wire 8 #L fifo_73 $end
 $var wire 8 #M fifo_72 $end
 $var wire 8 #N fifo_64 $end
 $var wire 8 #O fifo_63 $end
 $var wire 8 #P fifo_66 $end
 $var wire 8 #Q fifo_65 $end
 $var wire 8 #R fifo_68 $end
 $var wire 8 #S fifo_67 $end
 $var wire 8 #T fifo_69 $end
 $var wire 8 #U fifo_60 $end
 $var wire 8 #V fifo_62 $end
 $var wire 8 #W fifo_61 $end
 $var wire 8 #X fifo_97 $end
 $var wire 8 #Y fifo_96 $end
 $var wire 8 #Z fifo_99 $end
 $var wire 8 #[ fifo_98 $end
 $var wire 8 #\ fifo_91 $end
 $var wire 8 #] fifo_90 $end
 $var wire 8 #^ fifo_93 $end
 $var wire 8 #_ fifo_92 $end
 $var wire 8 #` fifo_95 $end
 $var wire 8 #a fifo_94 $end
 $var wire 8 #b fifo_86 $end
 $var wire 8 #c fifo_85 $end
 $var wire 8 #d fifo_88 $end
 $var wire 8 #e fifo_87 $end
 $var wire 8 #f fifo_89 $end
 $var wire 8 #g fifo_80 $end
 $var wire 8 #h fifo_82 $end
 $var wire 8 #i fifo_81 $end
 $var wire 8 #j fifo_84 $end
 $var wire 8 #k fifo_83 $end
$upscope $end
$enddefinitions $end
$dumpvars
b00000000 k
b00000000 j
b00000000 m
b00000000 l
b00000000 g
b00000000 f
b00000000 i
b00000000 h
b00000000 c
b00000000 b
b00000000 e
b00000000 d
b00000000 _
b00000000 ^
b00000000 a
b00000000 `
b00000000 {
b00000000 z
b00000000 }
b00000000 |
b00000000 w
b00000000 v
b00000000 y
b00000000 x
b00000000 s
b00000000 r
b00000000 u
b00000000 t
b00000000 o
b00000000 n
b00000000 q
b00000000 p
b00000000 K
b00000000 J
b00000000 M
b00000000 L
b00000000 G
b00000000 F
b00000000 I
b00000000 H
b00000000 C
b00000000 B
b00000000 E
b00000000 D
b00000000 ?
b00000000 >
b00000000 A
b00000000 @
b00000000 [
b00000000 Z
b00000000 ]
b00000000 \
b00000000 W
b00000000 V
b00000000 Y
b00000000 X
b00000000 S
b00000000 R
b00000000 U
b00000000 T
b00000000 O
b00000000 N
b00000000 Q
b00000000 P
b00000000 ~
b00000000 "g
b00000000 #H
b00000000 "f
b00000000 #G
b00000000 "e
b00000000 #F
b00000000 "d
b00000000 #E
b00000000 "k
b00000000 #L
b00000000 "j
b00000000 #K
b00000000 "i
b00000000 #J
b00000000 "h
b00000000 #I
b00000000 "o
b00000000 #P
b00000000 "n
b00000000 #O
b00000000 #N
b00000000 "l
b00000000 #M
b00000000 "s
b00000000 #T
b00000000 "r
b00000000 #S
b00000000 "q
b00000000 #R
b00000000 "p
b00000000 #Q
b00000000 "w
b00000000 #X
b00000000 "v
b00000000 #W
b00000000 "u
b00000000 #V
b00000000 "t
b00000000 #U
b00000000 "{
b00000000 #\
b00000000 "z
b00000000 #[
b00000000 "y
b00000000 #Z
b00000000 "x
b00000000 #Y
b00000000 #`
0"K
b00000000 "~
b00000000 #_
b00000000 "}
b00000000 #^
b00000000 "|
b00000000 #]
b00000000 #d
b00000000 #c
b00000000 #b
b00000000 #a
b00000000 #h
b00000000 #g
b00000000 #f
b00000000 #e
b00000000 #k
b00000000 #j
b00000000 #i
0"m
b00000000 "#
b00000000 ""
b00000000 "!
b00000000 "'
b00000000 "&
b00000000 "%
b00000000 "$
b00000000 "+
b00000000 "*
b00000000 ")
b00000000 "(
b00000000 "/
b00000000 ".
b00000000 "-
b00000000 ",
b00000000 "3
b00000000 "2
b00000000 "1
b00000000 "0
b00000000 "7
b00000000 "6
b00000000 "5
b00000000 "4
b00000000 ";
b00000000 ":
b00000000 "9
b00000000 "8
b00000000 "?
b00000000 ">
b00000000 "=
b00000000 "<
b00000000 "C
b00000000 #$
b00000000 "B
b00000000 ##
b00000000 "A
b00000000 #"
b00000000 "@
b00000000 #!
b00000000 "G
b00000000 #(
b00000000 "F
b00000000 #'
b00000000 "E
b00000000 #&
b00000000 "D
b00000000 #%
b00000000 #,
b00000000 "J
b00000000 #+
b00000000 "I
b00000000 #*
b00000000 "H
b00000000 #)
b00000000 "O
b00000000 #0
b00000000 "N
b00000000 #/
b00000000 "M
b00000000 #.
b00000000 "L
b00000000 #-
b00000000 "S
b00000000 #4
b00000000 "R
b00000000 #3
b00000000 "Q
b00000000 #2
b00000000 "P
b00000000 #1
b00000000 "W
b00000000 #8
b00000000 "V
b00000000 #7
b00000000 "U
b00000000 #6
b00000000 "T
b00000000 #5
b00000000 "[
b00000000 #<
b00000000 "Z
b00000000 #;
b00000000 "Y
b00000000 #:
b00000000 "X
b00000000 #9
b00000000 "_
b00000000 #@
b00000000 "^
b00000000 #?
b00000000 "]
b00000000 #>
b00000000 "\
b00000000 #=
b00000000 "c
b00000000 #D
b00000000 "b
b00000000 #C
b00000000 "a
b00000000 #B
b00000000 "`
b00000000 #A
b00000000 +
b00000000 *
b00000000 -
b00000000 ,
b00000000 '
b00000000 &
b00000000 )
b00000000 (
b00000000 #
b00000000 "
b00000000 %
b00000000 ;
b00000000 :
b00000000 =
b00000000 <
b00000000 7
b00000000 6
b00000000 9
b00000000 8
b00000000 3
b00000000 2
b00000000 5
b00000000 4
b00000000 /
b00000000 .
b00000000 1
b00000000 0
0!
0$
$end
#0
1!
1"m
#1
1"K
#6
0!
1$
b00000011 %
0"K
0"m
#11
1"K
b00000011 "A
#16
b00000001 #C
b00000111 %
0"K
#21
b00000111 "C
1"K
#26
b00000010 #C
b00000101 %
0"K
#31
b00000101 "B
1"K
#36
b00000011 #C
b00000011 %
0"K
#41
b00000011 "H
1"K
#46
b00000100 #C
b00000101 %
0"K
#51
b00000101 "G
1"K
#56
b00000101 #C
b00000001 %
0"K
#61
b00000001 "J
1"K
#66
b00000110 #C
b00000100 %
0"K
#71
b00000100 "I
1"K
#76
b00000111 #C
b00000011 %
0"K
#81
b00000011 "E
1"K
#86
b00001000 #C
b00000001 %
0"K
#91
b00000001 "D
1"K
#96
b00001001 #C
b00000110 %
0"K
#101
b00000110 "F
1"K
#106
b00001010 #C
b00000010 %
0"K
#111
1"K
b00000010 #>
#116
b00001011 #C
b00000110 %
0"K
#121
1"K
b00000110 #=
#126
b00001100 #C
b00000011 %
0"K
#131
1"K
b00000011 #@
#136
b00001101 #C
b00000111 %
0"K
#141
1"K
b00000111 #?
#146
b00001110 #C
b00000011 %
0"K
#151
1"K
b00000011 #B
#156
b00001111 #C
b00000101 %
0"K
#161
1"K
b00000101 #A
#166
b00010000 #C
b00000110 %
0"K
#171
b00000110 #:
1"K
#176
b00010001 #C
b00000100 %
0"K
#181
b00000100 #9
1"K
#186
b00010010 #C
b00000101 %
0"K
#191
1"K
b00000101 #<
#196
b00010011 #C
b00000111 %
0"K
#201
b00000111 #;
1"K
#206
b00010100 #C
b00000010 %
0"K
#211
1"K
b00000010 "{
#216
b00010101 #C
b00000101 %
0"K
#221
1"K
b00000101 "}
#226
b00010110 #C
b00000010 %
0"K
#231
1"K
b00000010 "|
#236
b00010111 #C
0"K
#241
1"K
b00000010 #!
#246
b00011000 #C
b00000000 %
0"K
#251
1"K
#256
b00000000 #C
1!
0$
b00000100 %
b00000011 #8
0"K
#261
1"K
#266
b00000001 #C
b00000001 %
b00000111 #8
0"K
#271
1"K
#276
b00000010 #C
b00000100 %
b00000101 #8
0"K
#281
1"K
#286
b00000011 #C
b00000000 %
b00000011 #8
0"K
#291
1"K
#296
b00000100 #C
b00000100 %
b00000101 #8
0"K
#301
1"K
#306
b00000101 #C
b00000000 %
b00000001 #8
0"K
#311
1"K
#316
b00000110 #C
b00000010 %
b00000100 #8
0"K
#321
1"K
#326
b00000111 #C
b00000011 %
b00000011 #8
0"K
#331
1"K
#336
b00001000 #C
b00000000 %
b00000001 #8
0"K
#341
1"K
#346
b00001001 #C
b00000011 %
b00000110 #8
0"K
#351
1"K
#356
b00001010 #C
b00000010 %
b00000010 #8
0"K
#361
1"K
#366
b00001011 #C
b00000100 %
b00000110 #8
0"K
#371
1"K
#376
b00001100 #C
b00000010 %
b00000011 #8
0"K
#381
1"K
#386
b00001101 #C
b00000101 %
b00000111 #8
0"K
#391
1"K
#396
b00001110 #C
b00000110 %
b00000011 #8
0"K
#401
1"K
#406
b00001111 #C
b00000101 #8
0"K
#411
1"K
#416
b00010000 #C
b00000010 %
b00000110 #8
0"K
#421
1"K
#426
b00010001 #C
b00000011 %
b00000100 #8
0"K
#431
1"K
#436
b00010010 #C
b00000010 %
b00000101 #8
0"K
#441
1"K
#446
b00010011 #C
b00000111 %
b00000111 #8
0"K
#451
1"K
#456
b00010100 #C
b00000100 %
b00000010 #8
0"K
#461
1"K
#466
b00010101 #C
b00000101 #8
0"K
#471
1"K
#476
b00010110 #C
b00000010 %
b00000010 #8
0"K
#481
1"K
#486
b00010111 #C
b00000111 %
0"K
#491
1"K
#496
b00011000 #C
b00000010 %
b00000000 #8
0"K
#501
1"K
#506
b00000000 #C
b00000000 %
0"K
