ex8/test_run_dir/Waveform_should_pass/Cnt_Add.vcd
$date
2023-11-07T15:24+0000
$end
$version
0.2
$end
$comment

$end
$timescale 1ns  $end
$scope module Cnt_Add $end
 $var wire 1 ! io_out_en $end
 $var wire 1 " clock $end
 $var wire 1 # io_in_en $end
 $var wire 8 $ cntReg $end
 $var wire 1 % reset $end
 $var wire 8 & io_out_cnt $end
$upscope $end
$enddefinitions $end
$dumpvars
0!
0"
0#
0%
b00000000 &
b00000000 $
$end
#0
1%
#1
1"
#6
0"
0%
#11
1"
#16
0"
#21
1"
#26
0"
#31
1"
#36
0"
#41
1"
#46
0"
#51
1"
#56
0"
#61
1"
#66
0"
#71
1"
#76
0"
#81
1"
#86
0"
#91
1"
#96
0"
#101
1"
#106
1!
0"
1#
#111
1"
b00000001 $
b00000001 &
#116
0"
#121
1"
b00000010 $
b00000010 &
#126
0"
#131
1"
b00000011 $
b00000011 &
#136
0"
#141
1"
b00000100 $
b00000100 &
#146
0"
#151
1"
b00000101 $
b00000101 &
#156
0"
#161
1"
b00000110 $
b00000110 &
#166
0"
#171
1"
b00000111 $
b00000111 &
#176
0"
#181
1"
b00001000 $
b00001000 &
#186
0"
#191
1"
b00001001 $
b00001001 &
#196
0"
#201
1"
b00000000 $
b00000000 &
#206
0"
0#
